…
surv_pr_git = read_csv("data/surv_program_git.csv") %>% 
  janitor::clean_names() %>% 
  rename(
    id = what_is_your_uni, 
    prog = what_is_your_degree_program,
    git_exp = which_most_accurately_describes_your_experience_with_git)

left_join(surv_os, surv_pr_git)
```

    ## # A tibble: 175 × 4
    ##   id          os         prog  git_exp                                          
    ##   <chr>       <chr>      <chr> <chr>                                            
    ## 1 student_87  <NA>       MS    Pretty smooth: needed some work to connect Git, …
    ## 2 student_106 Windows 10 Other Pretty smooth: needed some work to connect Git, …
    ## 3 student_66  Mac OS X   MPH   Smooth: installation and connection with GitHub …
    ## 4 student_93  Windows 10 MS    Smooth: installation and connection with GitHub …
    ## 5 student_99  Mac OS X   MS    Smooth: installation and connection with GitHub …
    ## # … with 170 more rows

``` r
inner_join(surv_os, surv_pr_git)
```

    ## # A tibble: 129 × 4
    ##   id          os         prog  git_exp                                          
    ##   <chr>       <chr>      <chr> <chr>                                            
    ## 1 student_87  <NA>       MS    Pretty smooth: needed some work to connect Git, …
    ## 2 student_106 Windows 10 Other Pretty smooth: needed some work to connect Git, …
    ## 3 student_66  Mac OS X   MPH   Smooth: installation and connection with GitHub …
    ## 4 student_93  Windows 10 MS    Smooth: installation and connection with GitHub …
    ## 5 student_99  Mac OS X   MS    Smooth: installation and connection with GitHub …
    ## # … with 124 more rows

``` r
anti_join(surv_os, surv_pr_git)
```

    ## # A tibble: 46 × 2
    ##   id          os        
    ##   <chr>       <chr>     
    ## 1 student_86  Mac OS X  
    ## 2 student_91  Windows 10
    ## 3 student_24  Mac OS X  
    ## 4 student_103 Mac OS X  
    ## 5 student_163 Mac OS X  
    ## # … with 41 more rows
…
